{
  "changes": [
    {
      "description": "Bump bitbucket-pipes-toolkit to fix vulnerabilities.",
      "type": "minor"
    }
  ],
  "created_at": "2024-01-15T14:31:36.714007+00:00",
  "version": "1.1.0"
}